Business Understanding • project.nyc.taxi
…
Resample with replacement a new 60 days hourly wage 3,000 times and
calculate the mean of each resample.

set.seed(1586)

BootstrapHourlyWage <-
  specify(DailyHourlyWage,
          `Daily Hourly Wage` ~ NULL) |>
  generate(reps = 3000, type = "bootstrap") |>
  calculate(stat = "mean")

BootstrapHourlyWage
#> Response: Daily Hourly Wage (numeric)
#> # A tibble: 3,000 × 2
#>    replicate  stat
#>        <int> <dbl>
#>  1         1  44.9
#>  2         2  44.6
#>  3         3  46.9
#>  4         4  46.7
#>  5         5  45.9
#>  6         6  46.7
#>  7         7  47.0
#>  8         8  48.7
#>  9         9  46.4
#> 10        10  47.2
#> # ℹ 2,990 more rows
…
